…
``` r
new = summarise(group_by(teams1, team), salary = sum(salary)/1000000)
```

    ## Warning: package 'bindrcpp' was built under R version 3.4.2

``` r
new
```

    ## # A tibble: 30 x 2
    ##     team    salary
    ##    <chr>     <dbl>
    ##  1   ATL  90.88649
    ##  2   BOS  91.91509
    ##  3   BRK  65.45121
    ##  4   CHI  92.07689
    ##  5   CHO 100.24629
    ##  6   CLE 125.79022
    ##  7   DAL  92.09820
    ##  8   DEN  78.38299
    ##  9   DET 103.07391
    ## 10   GSW  98.69091
    ## # ... with 20 more rows

``` r
newer = arrange(new, desc(salary))
newer
```

    ## # A tibble: 30 x 2
    ##     team    salary
    ##    <chr>     <dbl>
    ##  1   CLE 125.79022
    ##  2   LAC 114.77662
    ##  3   TOR 108.45847
    ##  4   MEM 108.34228
    ##  5   SAS 104.68668
    ##  6   DET 103.07391
    ##  7   POR 103.03223
    ##  8   ORL 102.40913
    ##  9   CHO 100.24629
    ## 10   WAS  98.77927
    ## # ... with 20 more rows
…
``` r
points1 <- summarise(group_by(combine, team), points = sum(points3_made) + sum(points2_made) + sum(points1_made))
points1
```

    ## # A tibble: 30 x 2
    ##     team points
    ##    <chr>  <int>
    ##  1   ATL   4253
    ##  2   BOS   4704
    ##  3   BRK   4069
    ##  4   CHI   4057
    ##  5   CHO   4409
    ##  6   CLE   4474
    ##  7   DAL   3599
    ##  8   DEN   4686
    ##  9   DET   4409
    ## 10   GSW   4969
    ## # ... with 20 more rows
…
